<!-- Created with Inkscape (http://www.inkscape.org/) --><svg xmlns:ns1="https://launchpad.net/jessyink" xmlns:dc="http://purl.org/dc/elements/1.1/" xmlns:cc="http://creativecommons.org/ns#" xmlns:rdf="http://www.w3.org/1999/02/22-rdf-syntax-ns#" xmlns:svg="http://www.w3.org/2000/svg" xmlns="http://www.w3.org/2000/svg" xmlns:xlink="http://www.w3.org/1999/xlink" xmlns:sodipodi="http://sodipodi.sourceforge.net/DTD/sodipodi-0.dtd" xmlns:inkscape="http://www.inkscape.org/namespaces/inkscape" width="1000" height="1000" viewBox="0 0 1000 1000" version="1.1" id="svg8" inkscape:version="0.92.4 5da689c313, 2019-01-14" sodipodi:docname="test.svg">
  <defs id="defs33">
    <marker inkscape:stockid="Arrow2Lstart" orient="auto" refY="0.0" refX="0.0" id="Arrow2Lstart" style="overflow:visible" inkscape:isstock="true">
      <path id="path859" style="fill-rule:evenodd;stroke-width:0.625;stroke-linejoin:round;stroke:#000000;stroke-opacity:1;fill:#000000;fill-opacity:1" d="M 8.7185878,4.0337352 L -2.2072895,0.016013256 L 8.7185884,-4.0017078 C 6.9730900,-1.6296469 6.9831476,1.6157441 8.7185878,4.0337352 z " transform="scale(1.1) translate(1,0)"/>
    </marker>
  </defs>
  <sodipodi:namedview pagecolor="#ffffff" bordercolor="#666666" borderopacity="1" objecttolerance="10" gridtolerance="10" guidetolerance="10" inkscape:pageopacity="0" inkscape:pageshadow="2" inkscape:window-width="1920" inkscape:window-height="1017" id="base" showgrid="true" inkscape:snap-text-baseline="true" inkscape:zoom="0.6675088" inkscape:cx="202.7349" inkscape:cy="481.16986" inkscape:window-x="0" inkscape:window-y="0" inkscape:window-maximized="1" inkscape:current-layer="webslicer-layer">
    <inkscape:grid type="xygrid" id="grid27" spacingx="10" spacingy="10" empspacing="10" color="#8080ff" opacity="0.25098039" empcolor="#0000ff" empopacity="0.25098039"/>
  </sodipodi:namedview>
  <g inkscape:groupmode="layer" id="webslicer-layer" inkscape:label="Slide3" style="display:inline">
    <rect height="201.49811" width="248.69112" y="353.92661" x="651.3089" id="slicerect1" style="opacity:0.5;fill:#ff0000;stroke-width:1.11927199">
      <desc id="desc51">format: png
dpi: 96
layout-disposition: bg-el-norepeat
layout-position-anchor: tl</desc>
    </rect>
  <svg:g inkscape:label="GridPolar:R5:A24" transform="translate(202.735, 481.17)"><svg:circle cx="0" cy="0" r="50.0" style="stroke:#000000;stroke-width:2.0;fill:none" inkscape:label="MajorDivCircle1:R50.0"/><svg:circle cx="0" cy="0" r="33.33333333333333" style="stroke:#000000;stroke-width:1.0;fill:none" inkscape:label="MinorDivCircle1:R50.0"/><svg:circle cx="0" cy="0" r="16.666666666666664" style="stroke:#000000;stroke-width:1.0;fill:none" inkscape:label="MinorDivCircle1:R50.0"/><svg:circle cx="0" cy="0" r="100.0" style="stroke:#000000;stroke-width:2.0;fill:none" inkscape:label="MajorDivCircle2:R100.0"/><svg:circle cx="0" cy="0" r="83.33333333333333" style="stroke:#000000;stroke-width:1.0;fill:none" inkscape:label="MinorDivCircle2:R100.0"/><svg:circle cx="0" cy="0" r="66.66666666666666" style="stroke:#000000;stroke-width:1.0;fill:none" inkscape:label="MinorDivCircle2:R100.0"/><svg:circle cx="0" cy="0" r="150.0" style="stroke:#000000;stroke-width:2.0;fill:none" inkscape:label="MajorDivCircle3:R150.0"/><svg:circle cx="0" cy="0" r="133.33333333333334" style="stroke:#000000;stroke-width:1.0;fill:none" inkscape:label="MinorDivCircle3:R150.0"/><svg:circle cx="0" cy="0" r="116.66666666666666" style="stroke:#000000;stroke-width:1.0;fill:none" inkscape:label="MinorDivCircle3:R150.0"/><svg:circle cx="0" cy="0" r="200.0" style="stroke:#000000;stroke-width:2.0;fill:none" inkscape:label="MajorDivCircle4:R200.0"/><svg:circle cx="0" cy="0" r="183.33333333333334" style="stroke:#000000;stroke-width:1.0;fill:none" inkscape:label="MinorDivCircle4:R200.0"/><svg:circle cx="0" cy="0" r="166.66666666666666" style="stroke:#000000;stroke-width:1.0;fill:none" inkscape:label="MinorDivCircle4:R200.0"/><svg:circle cx="0" cy="0" r="250.0" style="stroke:#000000;stroke-width:2.0;fill:none" inkscape:label="MajorDivCircle5:R250.0"/><svg:circle cx="0" cy="0" r="233.33333333333334" style="stroke:#000000;stroke-width:1.0;fill:none" inkscape:label="MinorDivCircle5:R250.0"/><svg:circle cx="0" cy="0" r="216.66666666666666" style="stroke:#000000;stroke-width:1.0;fill:none" inkscape:label="MinorDivCircle5:R250.0"/><svg:path d="M 0,0 L 0.0,50.0" style="stroke:#000000;stroke-width:2.0;fill:none" inkscape:label="RadialGridline0"/><svg:path d="M 0,0 L 50.0,3.061616997868383e-15" style="stroke:#000000;stroke-width:2.0;fill:none" inkscape:label="RadialGridline1"/><svg:path d="M 0,0 L 6.123233995736766e-15,-50.0" style="stroke:#000000;stroke-width:2.0;fill:none" inkscape:label="RadialGridline2"/><svg:path d="M 0,0 L -50.0,-9.184850993605149e-15" style="stroke:#000000;stroke-width:2.0;fill:none" inkscape:label="RadialGridline3"/><svg:path d="M 50.0,3.061616997868383e-15 L 250.0,1.5308084989341916e-14" style="stroke:#000000;stroke-width:2.0;fill:none" inkscape:label="RadialGridline0"/><svg:path d="M 48.29629131445341,-12.940952255126032 L 241.4814565722671,-64.70476127563016" style="stroke:#000000;stroke-width:2.0;fill:none" inkscape:label="RadialGridline1"/><svg:path d="M 43.30127018922194,-24.99999999999999 L 216.50635094610968,-124.99999999999994" style="stroke:#000000;stroke-width:2.0;fill:none" inkscape:label="RadialGridline2"/><svg:path d="M 35.35533905932738,-35.35533905932737 L 176.7766952966369,-176.77669529663686" style="stroke:#000000;stroke-width:2.0;fill:none" inkscape:label="RadialGridline3"/><svg:path d="M 25.000000000000018,-43.301270189221924 L 125.00000000000009,-216.50635094610962" style="stroke:#000000;stroke-width:2.0;fill:none" inkscape:label="RadialGridline4"/><svg:path d="M 12.940952255126051,-48.29629131445341 L 64.70476127563026,-241.48145657226706" style="stroke:#000000;stroke-width:2.0;fill:none" inkscape:label="RadialGridline5"/><svg:path d="M 6.123233995736766e-15,-50.0 L 3.061616997868383e-14,-250.0" style="stroke:#000000;stroke-width:2.0;fill:none" inkscape:label="RadialGridline6"/><svg:path d="M -12.940952255126017,-48.29629131445342 L -64.70476127563009,-241.4814565722671" style="stroke:#000000;stroke-width:2.0;fill:none" inkscape:label="RadialGridline7"/><svg:path d="M -24.999999999999986,-43.30127018922194 L -124.99999999999993,-216.5063509461097" style="stroke:#000000;stroke-width:2.0;fill:none" inkscape:label="RadialGridline8"/><svg:path d="M -35.35533905932737,-35.355339059327385 L -176.77669529663686,-176.77669529663692" style="stroke:#000000;stroke-width:2.0;fill:none" inkscape:label="RadialGridline9"/><svg:path d="M -43.30127018922192,-25.00000000000002 L -216.5063509461096,-125.00000000000011" style="stroke:#000000;stroke-width:2.0;fill:none" inkscape:label="RadialGridline10"/><svg:path d="M -48.29629131445341,-12.940952255126032 L -241.4814565722671,-64.70476127563016" style="stroke:#000000;stroke-width:2.0;fill:none" inkscape:label="RadialGridline11"/><svg:path d="M -50.0,-9.184850993605149e-15 L -250.0,-4.5924254968025744e-14" style="stroke:#000000;stroke-width:2.0;fill:none" inkscape:label="RadialGridline12"/><svg:path d="M -48.29629131445342,12.940952255126014 L -241.4814565722671,64.70476127563008" style="stroke:#000000;stroke-width:2.0;fill:none" inkscape:label="RadialGridline13"/><svg:path d="M -43.30127018922195,24.999999999999968 L -216.50635094610976,124.99999999999983" style="stroke:#000000;stroke-width:2.0;fill:none" inkscape:label="RadialGridline14"/><svg:path d="M -35.35533905932742,35.35533905932734 L -176.7766952966371,176.7766952966367" style="stroke:#000000;stroke-width:2.0;fill:none" inkscape:label="RadialGridline15"/><svg:path d="M -25.00000000000002,43.30127018922192 L -125.00000000000011,216.5063509461096" style="stroke:#000000;stroke-width:2.0;fill:none" inkscape:label="RadialGridline16"/><svg:path d="M -12.940952255126078,48.296291314453406 L -64.70476127563039,241.48145657226704" style="stroke:#000000;stroke-width:2.0;fill:none" inkscape:label="RadialGridline17"/><svg:path d="M -1.2246467991473532e-14,50.0 L -6.123233995736766e-14,250.0" style="stroke:#000000;stroke-width:2.0;fill:none" inkscape:label="RadialGridline18"/><svg:path d="M 12.940952255126012,48.29629131445342 L 64.70476127563006,241.4814565722671" style="stroke:#000000;stroke-width:2.0;fill:none" inkscape:label="RadialGridline19"/><svg:path d="M 24.999999999999964,43.30127018922195 L 124.99999999999982,216.50635094610976" style="stroke:#000000;stroke-width:2.0;fill:none" inkscape:label="RadialGridline20"/><svg:path d="M 35.35533905932737,35.355339059327385 L 176.77669529663683,176.77669529663692" style="stroke:#000000;stroke-width:2.0;fill:none" inkscape:label="RadialGridline21"/><svg:path d="M 43.30127018922192,25.00000000000003 L 216.5063509461096,125.00000000000014" style="stroke:#000000;stroke-width:2.0;fill:none" inkscape:label="RadialGridline22"/><svg:path d="M 48.296291314453406,12.940952255126081 L 241.48145657226704,64.7047612756304" style="stroke:#000000;stroke-width:2.0;fill:none" inkscape:label="RadialGridline23"/><svg:circle cx="0" cy="0" r="2.5" style="stroke:#000000;stroke-width:0;fill:#000000" inkscape:label="CentreDot"/><svg:text style="text-align:center;vertical-align:top;text-anchor:middle;font-size:18.0px;fill-opacity:1.0;stroke:none;font-weight:normal;font-style:normal;fill:#000000" x="274.0" y="6.570000000000017" inkscape:label="Label0">0.0</svg:text><svg:text style="text-align:center;vertical-align:top;text-anchor:middle;font-size:18.0px;fill-opacity:1.0;stroke:none;font-weight:normal;font-style:normal;fill:#000000" x="264.6636764032047" y="-64.34641835809066" inkscape:label="Label1">15.0</svg:text><svg:text style="text-align:center;vertical-align:top;text-anchor:middle;font-size:18.0px;fill-opacity:1.0;stroke:none;font-weight:normal;font-style:normal;fill:#000000" x="237.2909606369362" y="-130.42999999999995" inkscape:label="Label2">30.0</svg:text><svg:text style="text-align:center;vertical-align:top;text-anchor:middle;font-size:18.0px;fill-opacity:1.0;stroke:none;font-weight:normal;font-style:normal;fill:#000000" x="193.74725804511402" y="-187.177258045114" inkscape:label="Label3">45.0</svg:text><svg:text style="text-align:center;vertical-align:top;text-anchor:middle;font-size:18.0px;fill-opacity:1.0;stroke:none;font-weight:normal;font-style:normal;fill:#000000" x="137.00000000000009" y="-230.72096063693616" inkscape:label="Label4">60.0</svg:text><svg:text style="text-align:center;vertical-align:top;text-anchor:middle;font-size:18.0px;fill-opacity:1.0;stroke:none;font-weight:normal;font-style:normal;fill:#000000" x="70.91641835809075" y="-258.0936764032047" inkscape:label="Label5">75.0</svg:text><svg:text style="text-align:center;vertical-align:top;text-anchor:middle;font-size:18.0px;fill-opacity:1.0;stroke:none;font-weight:normal;font-style:normal;fill:#000000" x="3.3555322296637475e-14" y="-267.43" inkscape:label="Label6">90.0</svg:text><svg:text style="text-align:center;vertical-align:top;text-anchor:middle;font-size:18.0px;fill-opacity:1.0;stroke:none;font-weight:normal;font-style:normal;fill:#000000" x="-70.91641835809058" y="-258.09367640320477" inkscape:label="Label7">105.0</svg:text><svg:text style="text-align:center;vertical-align:top;text-anchor:middle;font-size:18.0px;fill-opacity:1.0;stroke:none;font-weight:normal;font-style:normal;fill:#000000" x="-136.99999999999991" y="-230.72096063693624" inkscape:label="Label8">120.0</svg:text><svg:text style="text-align:center;vertical-align:top;text-anchor:middle;font-size:18.0px;fill-opacity:1.0;stroke:none;font-weight:normal;font-style:normal;fill:#000000" x="-193.747258045114" y="-187.17725804511406" inkscape:label="Label9">135.0</svg:text><svg:text style="text-align:center;vertical-align:top;text-anchor:middle;font-size:18.0px;fill-opacity:1.0;stroke:none;font-weight:normal;font-style:normal;fill:#000000" x="-237.29096063693612" y="-130.43000000000012" inkscape:label="Label10">150.0</svg:text><svg:text style="text-align:center;vertical-align:top;text-anchor:middle;font-size:18.0px;fill-opacity:1.0;stroke:none;font-weight:normal;font-style:normal;fill:#000000" x="-264.6636764032047" y="-64.34641835809066" inkscape:label="Label11">165.0</svg:text><svg:text style="text-align:center;vertical-align:top;text-anchor:middle;font-size:18.0px;fill-opacity:1.0;stroke:none;font-weight:normal;font-style:normal;fill:#000000" x="-274.0" y="6.56999999999995" inkscape:label="Label12">180.0</svg:text><svg:text style="text-align:center;vertical-align:top;text-anchor:middle;font-size:18.0px;fill-opacity:1.0;stroke:none;font-weight:normal;font-style:normal;fill:#000000" x="-264.66367640320476" y="77.48641835809056" inkscape:label="Label13">195.0</svg:text><svg:text style="text-align:center;vertical-align:top;text-anchor:middle;font-size:18.0px;fill-opacity:1.0;stroke:none;font-weight:normal;font-style:normal;fill:#000000" x="-237.2909606369363" y="143.56999999999982" inkscape:label="Label14">210.0</svg:text><svg:text style="text-align:center;vertical-align:top;text-anchor:middle;font-size:18.0px;fill-opacity:1.0;stroke:none;font-weight:normal;font-style:normal;fill:#000000" x="-193.74725804511425" y="200.31725804511382" inkscape:label="Label15">225.0</svg:text><svg:text style="text-align:center;vertical-align:top;text-anchor:middle;font-size:18.0px;fill-opacity:1.0;stroke:none;font-weight:normal;font-style:normal;fill:#000000" x="-137.0000000000001" y="243.8609606369361" inkscape:label="Label16">240.0</svg:text><svg:text style="text-align:center;vertical-align:top;text-anchor:middle;font-size:18.0px;fill-opacity:1.0;stroke:none;font-weight:normal;font-style:normal;fill:#000000" x="-70.91641835809091" y="271.23367640320464" inkscape:label="Label17">255.0</svg:text><svg:text style="text-align:center;vertical-align:top;text-anchor:middle;font-size:18.0px;fill-opacity:1.0;stroke:none;font-weight:normal;font-style:normal;fill:#000000" x="-6.711064459327495e-14" y="280.57" inkscape:label="Label18">270.0</svg:text><svg:text style="text-align:center;vertical-align:top;text-anchor:middle;font-size:18.0px;fill-opacity:1.0;stroke:none;font-weight:normal;font-style:normal;fill:#000000" x="70.91641835809054" y="271.23367640320475" inkscape:label="Label19">285.0</svg:text><svg:text style="text-align:center;vertical-align:top;text-anchor:middle;font-size:18.0px;fill-opacity:1.0;stroke:none;font-weight:normal;font-style:normal;fill:#000000" x="136.9999999999998" y="243.86096063693628" inkscape:label="Label20">300.0</svg:text><svg:text style="text-align:center;vertical-align:top;text-anchor:middle;font-size:18.0px;fill-opacity:1.0;stroke:none;font-weight:normal;font-style:normal;fill:#000000" x="193.74725804511397" y="200.31725804511404" inkscape:label="Label21">315.0</svg:text><svg:text style="text-align:center;vertical-align:top;text-anchor:middle;font-size:18.0px;fill-opacity:1.0;stroke:none;font-weight:normal;font-style:normal;fill:#000000" x="237.29096063693612" y="143.57000000000014" inkscape:label="Label22">330.0</svg:text><svg:text style="text-align:center;vertical-align:top;text-anchor:middle;font-size:18.0px;fill-opacity:1.0;stroke:none;font-weight:normal;font-style:normal;fill:#000000" x="264.66367640320465" y="77.48641835809093" inkscape:label="Label23">345.0</svg:text></svg:g></g>
  <g inkscape:groupmode="layer" id="layer2" inkscape:label="Slide2" style="display:inline">
    <circle style="display:inline;fill:#000080;stroke:none" id="c1" cx="150" cy="450" r="50" inkscape:label="#path3736"/>
    <ellipse style="display:inline;fill:none;stroke:#ff0000;stroke-width:16" id="c2" cx="400" cy="450" rx="100" ry="50" inkscape:label="#path3738"/>
    <path style="display:inline;fill:#ffff00;stroke:#008000;stroke-width:16" id="c3" sodipodi:type="arc" sodipodi:cx="700" sodipodi:cy="450" sodipodi:rx="100" sodipodi:ry="50" sodipodi:start="0.59013865" sodipodi:end="5.6484511" d="m 783.08635,477.82381 a 100,50 0 0 1 -111.09848,20.17442 100,50 0 0 1 -71.96301,-46.88343 100,50 0 0 1 67.71127,-48.44091 100,50 0 0 1 112.7868,17.67793 L 700,450 Z" inkscape:label="#path3740"/>
    <path style="display:inline;fill:none;stroke:#000000;stroke-width:10;marker-start:url(#Arrow2Lstart)" d="M 100,600 200,700 300,600 400,700" id="p1" inkscape:connector-curvature="0" inkscape:label="#path3746"/>
    <path style="display:inline;fill:none;stroke:#000000;stroke-width:10" d="m 500,600 c 0,0 0,100 100,100 100,0 0,-100 100,-100 100,0 100,100 100,100" id="p2" inkscape:connector-curvature="0" inkscape:label="#path3748"/>
    <path sodipodi:type="star" style="display:inline;fill:#ffff00;stroke:#008000;stroke-width:10" id="s1" sodipodi:sides="5" sodipodi:cx="189.03001" sodipodi:cy="847.93945" sodipodi:r1="69.364868" sodipodi:r2="34.682434" sodipodi:arg1="0.63598373" sodipodi:arg2="1.2643023" inkscape:flatsided="false" inkscape:rounded="0" inkscape:randomized="0" d="m 244.8332,889.14005 -45.33887,-8.13446 -32.40428,32.73753 -6.27415,-45.63352 -41.14872,-20.70184 41.46124,-20.06861 6.97297,-45.53197 31.89861,33.23044 45.45824,-7.43847 -21.74681,40.60615 z" inkscape:transform-center-x="6.4673011" inkscape:transform-center-y="-0.16430137"/>
    <use style="display:inline" x="0" y="0" xlink:href="#s1" inkscape:transform-center-x="6.4673011" inkscape:transform-center-y="-0.16430137" id="u1" transform="translate(200,2.9962152)" width="100%" height="100%" inkscape:label="#use3808"/>
  </g>
  <g inkscape:label="Slide1" inkscape:groupmode="layer" id="layer1" style="display:inline">
    <text xml:space="preserve" style="font-size:14.66666698px;line-height:1.25;font-family:sans-serif;fill:#000000;stroke:none" x="100" y="100" id="t1" inkscape:label="#text12"><tspan sodipodi:role="line" id="tspan10" x="100" y="100">Hello World</tspan></text>
    <flowRoot xml:space="preserve" id="t4" style="font-size:40px;line-height:1.25;font-family:sans-serif;fill:#000000;stroke:none" transform="matrix(0.26458333,0,0,0.26458333,372.02961,28.904505)" inkscape:label="#flowRoot14"><flowRegion id="flowRegion16"><rect id="rect18" width="264.5675" height="262.16187" x="105.71429" y="219.66254"/></flowRegion><flowPara id="flowPara20" style="font-size:55.43307114px">flow text which wraps</flowPara></flowRoot>    <text xml:space="preserve" style="font-size:14.66666698px;line-height:1.25;font-family:sans-serif;fill:#000000;stroke:none" x="200" y="100" id="t2" inkscape:label="#text3727"><tspan sodipodi:role="line" id="tspan3725" x="200" y="100" style="font-size:14.66666698px">UPPER</tspan></text>
    <text xml:space="preserve" style="font-size:10.58333302px;line-height:1.25;font-family:sans-serif;fill:#000000;stroke:none" x="300" y="100" id="t3" inkscape:label="#text3735"><tspan sodipodi:role="line" id="tspan3733" x="300" y="100" style="font-size:14.66666698px">Multi line</tspan><tspan sodipodi:role="line" x="300" y="118.33334" id="tspan3737" style="font-size:14.66666698px">text</tspan><tspan sodipodi:role="line" x="300" y="136.66667" id="tspan3739" style="font-size:14.66666698px">FOO</tspan></text>
    <g id="t5" transform="translate(445.71038,-129.64807)" inkscape:label="#g3772">
      <text id="text3762" y="229.64807" x="54.289616" style="font-size:10.58333302px;line-height:1.25;font-family:sans-serif;fill:#000000;stroke:none" xml:space="preserve"><tspan y="229.64807" x="54.289616" id="tspan3760" sodipodi:role="line" style="font-size:14.66666698px">Grouped</tspan></text>
      <text id="text3766" y="259.64807" x="54.289619" style="font-size:14.66666698px;line-height:1.25;font-family:sans-serif;fill:#000000;stroke:none" xml:space="preserve"><tspan y="259.64807" x="54.289619" id="tspan3764" sodipodi:role="line" style="font-size:14.66666698px">text</tspan></text>
    </g>
    <rect style="fill:#000080;stroke:none" id="r1" width="100" height="100" x="100" y="200" inkscape:label="#rect3732"/>
    <rect style="fill:none;stroke:#ff0000;stroke-width:16" id="r2" width="200" height="100" x="300" y="200" inkscape:label="#rect3734"/>
    <rect style="fill:#ffff00;stroke:#008000;stroke-width:16" id="r3" width="200" height="100" x="600" y="200" ry="38.950798" rx="44.943226" inkscape:label="#rect3744"/>
  </g>
  <script ns1:version="1.5.5" id="JessyInk">// dummy
</script>
</svg>